%YAML 1.1
%TAG !u! tag:unity3d.com,2011:
--- !u!114 &11400000
MonoBehaviour:
  m_ObjectHideFlags: 0
  m_CorrespondingSourceObject: {fileID: 0}
  m_PrefabInstance: {fileID: 0}
  m_PrefabAsset: {fileID: 0}
  m_GameObject: {fileID: 0}
  m_Enabled: 1
  m_EditorHideFlags: 0
  m_Script: {fileID: 11500000, guid: 2baab7ee3be44273beab13438acaf973, type: 3}
  m_Name: ShrekSmile
  m_EditorClassIdentifier: 
  Cell:
    _isBase: 0
    _name: ShrekSmile
    _skillDescription: 
    _price: 1
  LinkedCells:
  - {fileID: 11400000, guid: a919a34f367645145b14c7f8556492dd, type: 2}
  - {fileID: 11400000, guid: c6722c8dc42fd3f4da76d59f353194f5, type: 2}
  Image: {fileID: 21300000, guid: d091f693dbeaeda4d9f63ac403b0d186, type: 3}
