%YAML 1.1
%TAG !u! tag:unity3d.com,2011:
--- !u!114 &11400000
MonoBehaviour:
  m_ObjectHideFlags: 0
  m_CorrespondingSourceObject: {fileID: 0}
  m_PrefabInstance: {fileID: 0}
  m_PrefabAsset: {fileID: 0}
  m_GameObject: {fileID: 0}
  m_Enabled: 1
  m_EditorHideFlags: 0
  m_Script: {fileID: 11500000, guid: 2baab7ee3be44273beab13438acaf973, type: 3}
  m_Name: ShrekWonder
  m_EditorClassIdentifier: 
  Cell:
    _isBase: 0
    _name: ShrekWonder
    _skillDescription: 
    _price: 1
  LinkedCells:
  - {fileID: 11400000, guid: a0f3ccf04c5468c46bab42fb1f6784b8, type: 2}
  - {fileID: 11400000, guid: a59754e0cc95b144ba438b57c5819697, type: 2}
  Image: {fileID: 21300000, guid: 23c2037b9f1fc8648ae5067e44d4cc3c, type: 3}
