%YAML 1.1
%TAG !u! tag:unity3d.com,2011:
--- !u!114 &11400000
MonoBehaviour:
  m_ObjectHideFlags: 0
  m_CorrespondingSourceObject: {fileID: 0}
  m_PrefabInstance: {fileID: 0}
  m_PrefabAsset: {fileID: 0}
  m_GameObject: {fileID: 0}
  m_Enabled: 1
  m_EditorHideFlags: 0
  m_Script: {fileID: 11500000, guid: 2baab7ee3be44273beab13438acaf973, type: 3}
  m_Name: GiveIt
  m_EditorClassIdentifier: 
  Cell:
    _isBase: 0
    _name: Give it
    _skillDescription: Ok, i take it.
    _price: 1
  LinkedCells:
  - {fileID: 11400000, guid: 205500ae51ab011439e88a773e379a96, type: 2}
  - {fileID: 11400000, guid: 88762ee943c74ee4e8dadda556f65203, type: 2}
  Image: {fileID: 21300000, guid: f7b3285910223c547b289625cadea299, type: 3}
