%YAML 1.1
%TAG !u! tag:unity3d.com,2011:
--- !u!114 &11400000
MonoBehaviour:
  m_ObjectHideFlags: 0
  m_CorrespondingSourceObject: {fileID: 0}
  m_PrefabInstance: {fileID: 0}
  m_PrefabAsset: {fileID: 0}
  m_GameObject: {fileID: 0}
  m_Enabled: 1
  m_EditorHideFlags: 0
  m_Script: {fileID: 11500000, guid: 2baab7ee3be44273beab13438acaf973, type: 3}
  m_Name: Oputi
  m_EditorClassIdentifier: 
  Cell:
    _isBase: 0
    _name: Oputi
    _skillDescription: Don't leave me, cat!
    _price: 1
  LinkedCells:
  - {fileID: 11400000, guid: d9eb4220c04cccd41ac6079d9b7e5be2, type: 2}
  - {fileID: 11400000, guid: 6b2c8007f410c8240bbf81d2ad5fb366, type: 2}
  - {fileID: 11400000, guid: 1ff328666b7ba2e4cb3e159b7897a729, type: 2}
  Image: {fileID: 21300000, guid: 8b73db68b7ff3754a8e0ffb36fe3e163, type: 3}
