%YAML 1.1
%TAG !u! tag:unity3d.com,2011:
--- !u!114 &11400000
MonoBehaviour:
  m_ObjectHideFlags: 0
  m_CorrespondingSourceObject: {fileID: 0}
  m_PrefabInstance: {fileID: 0}
  m_PrefabAsset: {fileID: 0}
  m_GameObject: {fileID: 0}
  m_Enabled: 1
  m_EditorHideFlags: 0
  m_Script: {fileID: 11500000, guid: 2baab7ee3be44273beab13438acaf973, type: 3}
  m_Name: SadCat2
  m_EditorClassIdentifier: 
  Cell:
    _isBase: 0
    _name: Upset cat
    _skillDescription: don't cry, kitty
    _price: 1
  LinkedCells:
  - {fileID: 11400000, guid: d9eb4220c04cccd41ac6079d9b7e5be2, type: 2}
  - {fileID: 11400000, guid: 62850aa9bb1f93942a93fe4aafbb41a1, type: 2}
  Image: {fileID: 21300000, guid: 3d86ba220c5cef04da2f6ee488504233, type: 3}
