%YAML 1.1
%TAG !u! tag:unity3d.com,2011:
--- !u!114 &11400000
MonoBehaviour:
  m_ObjectHideFlags: 0
  m_CorrespondingSourceObject: {fileID: 0}
  m_PrefabInstance: {fileID: 0}
  m_PrefabAsset: {fileID: 0}
  m_GameObject: {fileID: 0}
  m_Enabled: 1
  m_EditorHideFlags: 0
  m_Script: {fileID: 11500000, guid: 2baab7ee3be44273beab13438acaf973, type: 3}
  m_Name: Doge
  m_EditorClassIdentifier: 
  Cell:
    _isBase: 0
    _name: Doge
    _price: 1
  LinkedCells:
  - {fileID: 11400000, guid: 6efc4eaa571406c46b8bb466c66de76d, type: 2}
  - {fileID: 11400000, guid: edf6b2cb2d6fdfa419c609db98db458b, type: 2}
  Image: {fileID: 21300000, guid: fde53cdbae083834aaff29ee5438d63d, type: 3}
